\relax 
\providecommand\hyper@newdestlabel[2]{}
\providecommand\HyperFirstAtBeginDocument{\AtBeginDocument}
\HyperFirstAtBeginDocument{\ifx\hyper@anchor\@undefined
\global\let\oldcontentsline\contentsline
\gdef\contentsline#1#2#3#4{\oldcontentsline{#1}{#2}{#3}}
\global\let\oldnewlabel\newlabel
\gdef\newlabel#1#2{\newlabelxx{#1}#2}
\gdef\newlabelxx#1#2#3#4#5#6{\oldnewlabel{#1}{{#2}{#3}}}
\AtEndDocument{\ifx\hyper@anchor\@undefined
\let\contentsline\oldcontentsline
\let\newlabel\oldnewlabel
\fi}
\fi}
\global\let\hyper@last\relax 
\gdef\HyperFirstAtBeginDocument#1{#1}
\providecommand*\HyPL@Entry[1]{}
\HyPL@Entry{0<</P(1)>>}
\@writefile{toc}{\beamer@endinputifotherversion {3.24pt}}
\@writefile{nav}{\beamer@endinputifotherversion {3.24pt}}
\@writefile{nav}{\headcommand {\slideentry {0}{0}{1}{1/1}{}{0}}}
\@writefile{nav}{\headcommand {\beamer@framepages {1}{1}}}
\HyPL@Entry{1<</P(2)>>}
\@writefile{toc}{\beamer@sectionintoc {1}{\scshape  Introduction}{2}{0}{1}}
\@writefile{nav}{\headcommand {\sectionentry {1}{\scshape  Introduction}{2}{\scshape  Introduction}{0}}}
\@writefile{nav}{\headcommand {\beamer@sectionpages {1}{1}}}
\@writefile{nav}{\headcommand {\beamer@subsectionpages {1}{1}}}
\@writefile{nav}{\headcommand {\slideentry {1}{0}{2}{2/2}{}{0}}}
\@writefile{nav}{\headcommand {\beamer@framepages {2}{2}}}
\HyPL@Entry{2<</P(3)>>}
\@writefile{nav}{\headcommand {\slideentry {1}{0}{3}{3/3}{}{0}}}
\@writefile{nav}{\headcommand {\beamer@framepages {3}{3}}}
\HyPL@Entry{3<</P(4)>>}
\@writefile{toc}{\beamer@sectionintoc {2}{\scshape  Background}{4}{0}{2}}
\@writefile{nav}{\headcommand {\sectionentry {2}{\scshape  Background}{4}{\scshape  Background}{0}}}
\@writefile{nav}{\headcommand {\beamer@sectionpages {2}{3}}}
\@writefile{nav}{\headcommand {\beamer@subsectionpages {2}{3}}}
\@writefile{nav}{\headcommand {\slideentry {2}{0}{4}{4/4}{}{0}}}
\@writefile{nav}{\headcommand {\beamer@framepages {4}{4}}}
\HyPL@Entry{4<</P(5)>>}
\@writefile{toc}{\beamer@subsectionintoc {2}{1}{Sequence Alignment}{5}{0}{2}}
\@writefile{nav}{\headcommand {\beamer@subsectionentry {0}{2}{1}{5}{Sequence Alignment}}\headcommand {\beamer@subsectionpages {4}{4}}}
\@writefile{nav}{\headcommand {\slideentry {2}{1}{1}{5/7}{Sequence Alignment}{0}}}
\@writefile{nav}{\headcommand {\beamer@framepages {5}{7}}}
\HyPL@Entry{7<</P(6)>>}
\@writefile{nav}{\headcommand {\slideentry {2}{1}{2}{8/8}{Sequence Alignment}{0}}}
\@writefile{nav}{\headcommand {\beamer@framepages {8}{8}}}
\HyPL@Entry{8<</P(7)>>}
\@writefile{nav}{\headcommand {\slideentry {2}{1}{3}{9/9}{Sequence Alignment}{0}}}
\@writefile{nav}{\headcommand {\beamer@framepages {9}{9}}}
\HyPL@Entry{9<</P(8)>>}
\@writefile{toc}{\beamer@subsectionintoc {2}{2}{The Intel Xeon Phi Coprocessor}{10}{0}{2}}
\@writefile{nav}{\headcommand {\beamer@subsectionentry {0}{2}{2}{10}{The Intel Xeon Phi Coprocessor}}\headcommand {\beamer@subsectionpages {5}{9}}}
\@writefile{nav}{\headcommand {\slideentry {2}{2}{1}{10/17}{The Intel Xeon Phi Coprocessor}{0}}}
\@writefile{nav}{\headcommand {\beamer@framepages {10}{17}}}
\HyPL@Entry{17<</P(9)>>}
\@writefile{nav}{\headcommand {\slideentry {2}{2}{2}{18/18}{The Intel Xeon Phi Coprocessor}{0}}}
\@writefile{nav}{\headcommand {\beamer@framepages {18}{18}}}
\HyPL@Entry{18<</P(10)>>}
\@writefile{nav}{\headcommand {\slideentry {2}{2}{3}{19/19}{The Intel Xeon Phi Coprocessor}{0}}}
\@writefile{nav}{\headcommand {\beamer@framepages {19}{19}}}
\HyPL@Entry{19<</P(11)>>}
\@writefile{nav}{\headcommand {\slideentry {2}{2}{4}{20/24}{The Intel Xeon Phi Coprocessor}{0}}}
\@writefile{nav}{\headcommand {\beamer@framepages {20}{24}}}
\HyPL@Entry{24<</P(12)>>}
\@writefile{toc}{\beamer@sectionintoc {3}{\scshape  Implementation}{25}{0}{3}}
\@writefile{nav}{\headcommand {\sectionentry {3}{\scshape  Implementation}{25}{\scshape  Implementation}{0}}}
\@writefile{nav}{\headcommand {\beamer@sectionpages {4}{24}}}
\@writefile{nav}{\headcommand {\beamer@subsectionpages {10}{24}}}
\@writefile{nav}{\headcommand {\slideentry {3}{0}{5}{25/25}{}{0}}}
\@writefile{nav}{\headcommand {\beamer@framepages {25}{25}}}
\HyPL@Entry{25<</P(13)>>}
\@writefile{toc}{\beamer@subsectionintoc {3}{1}{SWIMIC}{26}{0}{3}}
\@writefile{nav}{\headcommand {\beamer@subsectionentry {0}{3}{1}{26}{SWIMIC}}\headcommand {\beamer@subsectionpages {25}{25}}}
\@writefile{nav}{\headcommand {\slideentry {3}{1}{1}{26/30}{SWIMIC}{0}}}
\@writefile{nav}{\headcommand {\beamer@framepages {26}{30}}}
\HyPL@Entry{30<</P(14)>>}
\@writefile{toc}{\beamer@subsectionintoc {3}{2}{The Smith-Waterman algorithm}{31}{0}{3}}
\@writefile{nav}{\headcommand {\beamer@subsectionentry {0}{3}{2}{31}{The Smith-Waterman algorithm}}\headcommand {\beamer@subsectionpages {26}{30}}}
\@writefile{nav}{\headcommand {\slideentry {3}{2}{1}{31/31}{The Smith-Waterman algorithm}{0}}}
\@writefile{nav}{\headcommand {\beamer@framepages {31}{31}}}
\HyPL@Entry{31<</P(15)>>}
\@writefile{nav}{\headcommand {\slideentry {3}{2}{2}{32/35}{The Smith-Waterman algorithm}{0}}}
\@writefile{nav}{\headcommand {\beamer@framepages {32}{35}}}
\HyPL@Entry{35<</P(16)>>}
\@writefile{toc}{\beamer@subsectionintoc {3}{3}{Optimizations}{36}{0}{3}}
\@writefile{nav}{\headcommand {\beamer@subsectionentry {0}{3}{3}{36}{Optimizations}}\headcommand {\beamer@subsectionpages {31}{35}}}
\@writefile{nav}{\headcommand {\slideentry {3}{3}{1}{36/36}{Optimizations}{0}}}
\@writefile{nav}{\headcommand {\beamer@framepages {36}{36}}}
\HyPL@Entry{36<</P(17)>>}
\@writefile{nav}{\headcommand {\slideentry {3}{3}{2}{37/37}{Optimizations}{0}}}
\@writefile{nav}{\headcommand {\beamer@framepages {37}{37}}}
\HyPL@Entry{37<</P(18)>>}
\@writefile{nav}{\headcommand {\slideentry {3}{3}{3}{38/38}{Optimizations}{0}}}
\@writefile{nav}{\headcommand {\beamer@framepages {38}{38}}}
\HyPL@Entry{38<</P(19)>>}
\@writefile{nav}{\headcommand {\slideentry {3}{3}{4}{39/39}{Optimizations}{0}}}
\@writefile{nav}{\headcommand {\beamer@framepages {39}{39}}}
\HyPL@Entry{39<</P(20)>>}
\@writefile{toc}{\beamer@sectionintoc {4}{\scshape  Results}{40}{0}{4}}
\@writefile{nav}{\headcommand {\sectionentry {4}{\scshape  Results}{40}{\scshape  Results}{0}}}
\@writefile{nav}{\headcommand {\beamer@sectionpages {25}{39}}}
\@writefile{nav}{\headcommand {\beamer@subsectionpages {36}{39}}}
\@writefile{nav}{\headcommand {\slideentry {4}{0}{5}{40/40}{}{0}}}
\@writefile{nav}{\headcommand {\beamer@framepages {40}{40}}}
\HyPL@Entry{40<</P(21)>>}
\@writefile{nav}{\headcommand {\slideentry {4}{0}{6}{41/48}{}{0}}}
\@writefile{nav}{\headcommand {\beamer@framepages {41}{48}}}
\HyPL@Entry{48<</P(22)>>}
\@writefile{nav}{\headcommand {\slideentry {4}{0}{7}{49/49}{}{0}}}
\@writefile{nav}{\headcommand {\beamer@framepages {49}{49}}}
\HyPL@Entry{49<</P(23)>>}
\@writefile{toc}{\beamer@subsectionintoc {4}{1}{Implementation Testing}{50}{0}{4}}
\@writefile{nav}{\headcommand {\beamer@subsectionentry {0}{4}{1}{50}{Implementation Testing}}\headcommand {\beamer@subsectionpages {40}{49}}}
\@writefile{nav}{\headcommand {\slideentry {4}{1}{1}{50/50}{Implementation Testing}{0}}}
\@writefile{nav}{\headcommand {\beamer@framepages {50}{50}}}
\HyPL@Entry{50<</P(24)>>}
\@writefile{nav}{\headcommand {\slideentry {4}{1}{2}{51/51}{Implementation Testing}{0}}}
\@writefile{nav}{\headcommand {\beamer@framepages {51}{51}}}
\HyPL@Entry{51<</P(25)>>}
\@writefile{nav}{\headcommand {\slideentry {4}{1}{3}{52/52}{Implementation Testing}{0}}}
\@writefile{nav}{\headcommand {\beamer@framepages {52}{52}}}
\HyPL@Entry{52<</P(26)>>}
\@writefile{toc}{\beamer@subsectionintoc {4}{2}{Performance Analysis}{53}{0}{4}}
\@writefile{nav}{\headcommand {\beamer@subsectionentry {0}{4}{2}{53}{Performance Analysis}}\headcommand {\beamer@subsectionpages {50}{52}}}
\@writefile{nav}{\headcommand {\slideentry {4}{2}{1}{53/53}{Performance Analysis}{0}}}
\@writefile{nav}{\headcommand {\beamer@framepages {53}{53}}}
\HyPL@Entry{53<</P(27)>>}
\@writefile{nav}{\headcommand {\slideentry {4}{2}{2}{54/54}{Performance Analysis}{0}}}
\@writefile{nav}{\headcommand {\beamer@framepages {54}{54}}}
\HyPL@Entry{54<</P(28)>>}
\@writefile{nav}{\headcommand {\slideentry {4}{2}{3}{55/55}{Performance Analysis}{0}}}
\@writefile{nav}{\headcommand {\beamer@framepages {55}{55}}}
\HyPL@Entry{55<</P(29)>>}
\@writefile{snm}{\beamer@slide {eq:he}{56}}
\newlabel{eq:he}{{1}{56}{Performance Analysis}{Doc-Start}{}}
\@writefile{nav}{\headcommand {\slideentry {4}{2}{4}{56/56}{Performance Analysis}{0}}}
\@writefile{nav}{\headcommand {\beamer@framepages {56}{56}}}
\HyPL@Entry{56<</P(30)>>}
\@writefile{toc}{\beamer@subsectionintoc {4}{3}{Competitiveness}{57}{0}{4}}
\@writefile{nav}{\headcommand {\beamer@subsectionentry {0}{4}{3}{57}{Competitiveness}}\headcommand {\beamer@subsectionpages {53}{56}}}
\@writefile{nav}{\headcommand {\slideentry {4}{3}{1}{57/57}{Competitiveness}{0}}}
\@writefile{nav}{\headcommand {\beamer@framepages {57}{57}}}
\HyPL@Entry{57<</P(31)>>}
\@writefile{toc}{\beamer@sectionintoc {5}{\scshape  Conclusion}{58}{0}{5}}
\@writefile{nav}{\headcommand {\sectionentry {5}{\scshape  Conclusion}{58}{\scshape  Conclusion}{0}}}
\@writefile{nav}{\headcommand {\beamer@sectionpages {40}{57}}}
\@writefile{nav}{\headcommand {\beamer@subsectionpages {57}{57}}}
\@writefile{nav}{\headcommand {\slideentry {5}{0}{2}{58/58}{}{0}}}
\@writefile{nav}{\headcommand {\beamer@framepages {58}{58}}}
\HyPL@Entry{58<</P(32)>>}
\@writefile{nav}{\headcommand {\slideentry {5}{0}{3}{59/62}{}{0}}}
\@writefile{nav}{\headcommand {\beamer@framepages {59}{62}}}
\HyPL@Entry{62<</P(33)>>}
\@writefile{nav}{\headcommand {\slideentry {5}{0}{4}{63/63}{}{0}}}
\@writefile{nav}{\headcommand {\beamer@framepages {63}{63}}}
\@writefile{nav}{\headcommand {\beamer@partpages {1}{63}}}
\@writefile{nav}{\headcommand {\beamer@subsectionpages {58}{63}}}
\@writefile{nav}{\headcommand {\beamer@sectionpages {58}{63}}}
\@writefile{nav}{\headcommand {\beamer@documentpages {63}}}
\@writefile{nav}{\headcommand {\def \inserttotalframenumber {33}}}
